Google Symptoms anosmia + ageusia indicator vs GHT indicator
…
## # A tibble: 51 x 2
##    geo_value  corr
##    <chr>     <dbl>
##  1 ga        0.764
##  2 ny        0.754
##  3 il        0.732
##  4 nj        0.728
##  5 la        0.705
##  6 tx        0.700
##  7 fl        0.693
##  8 mo        0.659
##  9 in        0.625
## 10 tn        0.615
## #  with 41 more rows
…
