Indicator Heterogeneity I: Temporal Heterogeneity
…
plot_lim =  100
outliers = dv_cases_sensorized %>% filter(
      abs(slope) > plot_lim,
    )
print(outliers)

## # A tibble: 586 x 7
##    geo_value time_value indicator_value cases_value intercept   slope
##    <chr>     <date>               <dbl>       <dbl>     <dbl>   <dbl>
##  1 01013     2020-04-29        0.213          25.0     9.85   -2.37e3
##  2 05001     2020-04-29        0.000025        0      -0.0720  1.53e2
##  3 18113     2020-04-29        0.217           6.88    5.71   -9.17e4
##  4 20055     2020-04-29        1.02           62.3   -34.3     1.01e2
##  5 21025     2020-04-29        0               0       0.671  -1.66e3
##  6 27131     2020-04-29        0.000001        1.07    0.627  -1.38e3
##  7 28083     2020-04-29        0.000031       16.2    25.0    -4.60e2
##  8 37041     2020-04-29        0.000001        0       0.944   2.89e3
##  9 37091     2020-04-29        0              13.9    13.3    -2.41e6
## 10 39129     2020-04-29        0.921          15.6   419.     -3.31e2
## #  with 576 more rows, and 1 more variable: sensorized_value <dbl>
…
